============================
   _____ _          _  __
  / ____| |        | |/ _|
 | (___ | |__   ___| | |_
  \___ \| '_ \ / _ \ |  _|
  ____) | | | |  __/ | |
 |_____/|_| |_|\___|_|_|

============================